{
    "defaultSeverity": "error",
    "no-default-export": false,
    "extends": [
      "tslint:latest",
      "tslint-config-prettier",
      "tslint-plugin-prettier",
      "tslint-react"
    ],
    "jsRules": {},
    "rules": {
      "prettier": true,
      "jsx-no-multiline-js": false,
      "jsx-no-lambda": false,
      "import-name": false,
      "no-boolean-literal-compare": false,
      "quotemark": [
        true,
        "single",
        "avoid-escape",
        "jsx-double"
      ],
      "trailing-comma": false,
      "indent": [
        true,
        "spaces",
        2
      ],
      "eofline": true,
      "whitespace": false,
      "interface-name": [
        true,
        "never-prefix"
      ],
      "max-classes-per-file": false,
      "member-access": [true, "no-public"],
      "member-ordering": [
        true,
        {
          "order": [
            {
              "kinds": [
                "static-field",
                "instance-field"
              ]
            },
            "constructor",
            "instance-method"
          ]
        }
      ],
      "no-implicit-dependencies": [true, ["src"]],
      "no-namespace": false,
      "no-unused-expression": false,
      "no-submodule-imports": false,
      "object-literal-sort-keys": false
    },
    "rulesDirectory": []
  }

  